…
``` r
n_distinct(instacart$aisle)
```

    ## [1] 134

``` r
instacart %>% 
  group_by(aisle) %>%
  summarize(number_products = n()) %>% 
  arrange(min_rank(desc(number_products)))
```

    ## # A tibble: 134 x 2
    ##    aisle                         number_products
    ##    <chr>                                   <int>
    ##  1 fresh vegetables                       150609
    ##  2 fresh fruits                           150473
    ##  3 packaged vegetables fruits              78493
    ##  4 yogurt                                  55240
    ##  5 packaged cheese                         41699
    ##  6 water seltzer sparkling water           36617
    ##  7 milk                                    32644
    ##  8 chips pretzels                          31269
    ##  9 soy lactosefree                         26240
    ## 10 bread                                   23635
    ## # ... with 124 more rows
…
| Product          |  Sun|  Mon|  Tues|  Wed|  Thurs|  Fri|  Sat|
|:-----------------|----:|----:|-----:|----:|------:|----:|----:|
| Coffee Ice Cream |   14|   14|    15|   15|     15|   12|   14|
| Pink Lady Apples |   13|   11|    12|   14|     12|   13|   12|

Problem 3
---------

``` r
data("ny_noaa")
ny_noaa
```

    ## # A tibble: 2,595,176 x 7
    ##    id          date        prcp  snow  snwd tmax  tmin 
    ##    <chr>       <date>     <int> <int> <int> <chr> <chr>
    ##  1 US1NYAB0001 2007-11-01    NA    NA    NA <NA>  <NA> 
    ##  2 US1NYAB0001 2007-11-02    NA    NA    NA <NA>  <NA> 
    ##  3 US1NYAB0001 2007-11-03    NA    NA    NA <NA>  <NA> 
    ##  4 US1NYAB0001 2007-11-04    NA    NA    NA <NA>  <NA> 
    ##  5 US1NYAB0001 2007-11-05    NA    NA    NA <NA>  <NA> 
    ##  6 US1NYAB0001 2007-11-06    NA    NA    NA <NA>  <NA> 
    ##  7 US1NYAB0001 2007-11-07    NA    NA    NA <NA>  <NA> 
    ##  8 US1NYAB0001 2007-11-08    NA    NA    NA <NA>  <NA> 
    ##  9 US1NYAB0001 2007-11-09    NA    NA    NA <NA>  <NA> 
    ## 10 US1NYAB0001 2007-11-10    NA    NA    NA <NA>  <NA> 
    ## # ... with 2,595,166 more rows
…
#### For snowfall, what are the most commonly observed values? Why?

``` r
ny_noaa_clean %>% 
  group_by(snow) %>% 
  summarize(number_time_snow = n()) %>% 
  arrange(min_rank(desc(number_time_snow)))
```

    ## # A tibble: 282 x 2
    ##     snow number_time_snow
    ##    <int>            <int>
    ##  1     0          2008508
    ##  2    NA           381221
    ##  3    25            31022
    ##  4    13            23095
    ##  5    51            18274
    ##  6    76            10173
    ##  7     8             9962
    ##  8     5             9748
    ##  9    38             9197
    ## 10     3             8790
    ## # ... with 272 more rows

``` r
ny_noaa_clean %>% 
  group_by(snow, month) %>% 
  summarize(number_time_snow = n()) %>% 
  arrange(min_rank(desc(number_time_snow)))
```

    ## # A tibble: 1,328 x 3
    ## # Groups:   snow [282]
    ##     snow month number_time_snow
    ##    <int> <chr>            <int>
    ##  1     0 10              195500
    ##  2     0 05              192838
    ##  3     0 08              190704
    ##  4     0 07              190472
    ##  5     0 09              187502
    ##  6     0 06              183908
    ##  7     0 04              176964
    ##  8     0 11              164518
    ##  9     0 03              150688
    ## 10     0 12              134729
    ## # ... with 1,318 more rows
…
